[{"identifier":".navbar-brand",
"content":"Quick Jump"},

{"identifier":"span.sr-only",
"content":"Toggle Navigation"},

{"identifier":"a[href=#top]",
"content":"Top"},

{"identifier":"a[href=#stats]",
"content":"Stats"},

{"identifier":"a[href=#damage]",
"content":"Damage"},

{"identifier":"a[href=#enemy]",
"content":"Enemy"},

{"identifier":"a[href=#results]",
"content":"Results"},

{"identifier":"#about-link",
"content":"About"},

{"identifier":"#error-link",
"content":"Errors"},

{"identifier":"#trans-en",
"content":"EN"},

{"identifier":"#trans-jp",
"content":"\u65E5\u672C\u8A9E"},

{"identifier":"#tid-span",
"content":"Team ID"},

{"identifier":"input[name=team-id]",
"content":"",
"attr":"placeholder",
"attr_content":"Press Enter to get your team!"},

{"identifier":"#level-row td:first-child b",
"content":"Level"},

{"identifier":"#type-row td:first-child b",
"content":"Type"},

{"identifier":"#lead-row td:first-child b span",
"content":"Multipliers",
"attr":"title",
"attr_content":"Combo multipliers assumed to be max."},

{"identifier":"#hp-row td:first-child b",
"content":"HP"},

{"identifier":"#atk-row td:first-child b",
"content":"ATK"},

{"identifier":"#rcv-row td:first-child b",
"content":"RCV"},

{"identifier":"#dmg-form legend",
"content":"Damage Calculation"},

{"identifier":"input[name=fr-match]",
"content":"EN",
"attr":"placeholder",
"attr_content":"Enter Fire-orb matches."},

{"identifier":"input[name=wt-match]",
"content":"EN",
"attr":"placeholder",
"attr_content":"Enter Water-orb matches."},

{"identifier":"input[name=wd-match]",
"content":"EN",
"attr":"placeholder",
"attr_content":"Enter Wood-orb matches."},

{"identifier":"input[name=lt-match]",
"content":"EN",
"attr":"placeholder",
"attr_content":"Enter Light-orb matches."},

{"identifier":"input[name=dk-match]",
"content":"EN",
"attr":"placeholder",
"attr_content":"Enter Dark-orb matches."},

{"identifier":"input[name=ht-match]",
"content":"EN",
"attr":"placeholder",
"attr_content":"Enter Heart-orb matches."},

{"identifier":"#orb-help",
"content":"Enter the number of orbs in the combo, 'R' for a row, and seperate combos with a +. Example: Two 3-orb matches is 3+3, a 3-orb and a row is 3+R, and an 8-orb that includes a row is 2R."},

{"identifier":"#plus-help",
"content":"Enter the number of +orbs in each combo, seperated by a +."},

{"identifier":"select optgroup[label=Element]",
"content":"",
"attr":"label",
"attr_content":"Element"},

{"identifier":"select optgroup[label=Type]",
"content":"",
"attr":"label",
"attr_content":"Type"},

{"identifier":"#active-label",
"content":"Active Skill"},

{"identifier":"#enemy-label",
"content":"Enemy Stats"},

{"identifier":"#enemy-health",
"content":"",
"attr":"placeholder",
"attr_content":"HP"},

{"identifier":"#enemy-def",
"content":"",
"attr":"placeholder",
"attr_content":"Defense"},

{"identifier":"#calc-result",
"content":"Calculation Result"},

{"identifier":"#dmg-submit",
"content":"Calculate!"},

{"identifier":"#tdam-label",
"content":"Total Damage:"},

{"identifier":"#calc-after",
"content":"Remaining: "},

{"identifier":"#results-block label",
"content":"Results"},

{"identifier":"#about-title",
"content":"About PadSpike!"},

{"identifier":"#about-what",
"content":"What is it?"},

{"identifier":"#about-what-body",
"content":"PadSpike! is a damage calculator for Puzzle and Dragons that tries to give more precise numbers for a given board setup versus an enemy. Specifically, it tries to answer the age-old question: 'Can I spike (read: burst) this Descend boss before they murder me?' It works by loading a team built in PadHerder and using the stats of your actual cards to determine your damage output."},

{"identifier":"#about-how",
"content":"How is it?"},

{"identifier":"#about-how-body",
"content":"PadSpike! is only possible thanks to the efforts of a number of people and puzzlers before us. In no particular order:"},

{"identifier":"#about-block ul li:nth-child(1)",
"content":"GungHo, for creating Puzzle and Dragons!"},

{"identifier":"#about-block ul li:nth-child(2)",
"content":"PadHerder and Freddie, for a wonderful site and an equally wonderful API!"},

{"identifier":"#about-block ul li:nth-child(3)",
"content":"Contributors to the Puzzle and Dragons wiki, who made several key formulas discoverable!"},

{"identifier":"#about-block ul li:nth-child(4)",
"content":"The Puzzle and Dragons subreddit and its posters, for several illuminating posts on the game!"},

{"identifier":"#about-notmine",
"content":"'Puzzle and Dragons' and all related images are property of GungHo Online Entertainment, Inc."}
]